{
   "Description" : "khallware Merit Services",
   "Mappings" : {
      "Vars" : {
         "ec2size" : { "Val" : "t2.micro" }
      }
   },
   "Resources"   : {
      "vpc" : {
         "Type"       : "AWS::EC2::VPC",
         "Properties" : {
            "CidrBlock"          : "192.168.0.0/16",
            "EnableDnsSupport"   : "true",
            "EnableDnsHostnames" : "true",
            "InstanceTenancy"    : "default",
            "Tags" : [ { "Key" : "projects", "Value" : "merit" } ]
         }
      },
      "role" : {
         "Type"       : "AWS::IAM::Role",
         "Properties" : {
            "AssumeRolePolicyDocument" : {
               "Version" : "2012-10-17",
               "Statement": [{
                  "Effect"    : "Allow",
                  "Principal" : { "Service": [ "ec2.amazonaws.com" ] },
                  "Action"    : [ "sts:AssumeRole" ]
               }]
            },
            "Path"    : "/"
         }
      },
      "policy" : {
         "Type"       : "AWS::IAM::Policy",
         "Properties" : {
            "PolicyName"     : "policy",
            "Roles"          : [ { "Ref" : "role" } ],
            "PolicyDocument" : {
               "Version" : "2012-10-17",
               "Statement": [
                  { "Effect": "Allow", "Action": "*", "Resource": "*" }
               ]
            }
         }
      },
      "instanceprofile" : {
         "Type"       : "AWS::IAM::InstanceProfile",
         "Properties" : {
            "Path"    : "/",
            "Roles"   : [ { "Ref" : "role" } ]
         }
      },
      "dot33subnet" : {
         "Type" : "AWS::EC2::Subnet",
         "Properties" : {
            "VpcId" : { "Ref" : "vpc" },
            "CidrBlock" : "192.168.33.0/24",
            "AvailabilityZone" : {
               "Fn::Join" : [ "", [{ "Ref" : "AWS::Region" }, "a" ]]
            },
            "Tags" : [ { "Key" : "projects", "Value" : "merit" } ]
         }
      },
      "assocSubnetNetworkACL" : {
         "Type" : "AWS::EC2::SubnetNetworkAclAssociation",
         "Properties" : {
            "NetworkAclId" : { "Ref" : "netacl" },
            "SubnetId"     : { "Ref" : "dot33subnet" }
         }
      },
      "internetGw" : {
         "Type" : "AWS::EC2::InternetGateway"
      },
      "vpcGatewayAttachment" : {
         "Type"       : "AWS::EC2::VPCGatewayAttachment",
         "Properties" : {
            "VpcId"             : { "Ref" : "vpc" },
            "InternetGatewayId" : { "Ref" : "internetGw" }
         }
      },
      "routetable" : {
         "Type"       : "AWS::EC2::RouteTable",
         "Properties" : {
            "VpcId" : { "Ref" : "vpc" }
         }
      },
      "inetroute" : {
         "Type"       : "AWS::EC2::Route",
         "DependsOn"  : "vpcGatewayAttachment",
         "Properties" : {
            "RouteTableId" : { "Ref" : "routetable" },
            "DestinationCidrBlock" : "0.0.0.0/0",
            "GatewayId" : { "Ref" : "internetGw" }
         }
      },
      "dot33subnetRoutetableAssoc" : {
         "Type"       : "AWS::EC2::SubnetRouteTableAssociation",
         "Properties" : {
            "SubnetId"     : { "Ref" : "dot33subnet" },
            "RouteTableId" : { "Ref" : "routetable" }
         }
      },
      "netacl" : {
         "Type"       : "AWS::EC2::NetworkAcl",
         "Properties" : {
            "VpcId" : { "Ref" : "vpc" },
            "Tags" : [ { "Key" : "projects", "Value" : "merit" } ]
         }
      },
      "netAclEntry1" : {
         "Type"       : "AWS::EC2::NetworkAclEntry",
         "Properties" : {
            "RuleNumber" : "100",
            "RuleAction" : "allow",
            "Protocol"   : "-1",
            "Egress"     : "true",
            "CidrBlock"  : "0.0.0.0/0",
            "NetworkAclId" : { "Ref" : "netacl" }
         }
      },
      "securitygroup" : {
         "Type" : "AWS::EC2::SecurityGroup",
         "Properties" : {
            "VpcId"                : { "Ref" : "vpc" },
            "GroupDescription"     : "Enable SSH, HTTP, and HTTPS",
            "Tags" : [ { "Key" : "projects", "Value" : "merit" } ],
            "SecurityGroupIngress" : [
               {
                  "IpProtocol" : "tcp",
                  "FromPort"   : "22",
                  "ToPort"     : "22",
                  "CidrIp"     : "0.0.0.0/0"
               },
               {
                  "IpProtocol" : "tcp",
                  "FromPort"   : "8080",
                  "ToPort"     : "8080",
                  "CidrIp"     : "0.0.0.0/0"
               }
            ]
         }
      },
      "webservice" : {
         "Type"       : "AWS::EC2::Instance",
         "DependsOn"  : "dot33subnetRoutetableAssoc",
         "Properties" : {
            "KeyName"            : "MYKEYPAIR",
            "InstanceType"       : "t2.micro",
            "IamInstanceProfile" : { "Ref" : "instanceprofile" },
            "AvailabilityZone"   : {
               "Fn::Join" : [ "", [{ "Ref" : "AWS::Region" }, "a" ]]
            },
            "ImageId"            : "ami-7172b611",
            "Monitoring"         : "false",
            "Tags" : [ { "Key" : "projects", "Value" : "merit" } ],
            "NetworkInterfaces"  : [{
               "DeviceIndex"              : 0,
               "SubnetId"                 : { "Ref" : "dot33subnet" },
               "PrivateIpAddresses"       : [{
                   "PrivateIpAddress": "192.168.33.100", "Primary": "true"
               }],
               "GroupSet"                 : [{ "Ref" : "securitygroup" }],
               "AssociatePublicIpAddress" : "true",
               "DeleteOnTermination"      : "true"
            }],
            "UserData" : { "Fn::Base64" : { "Fn::Join" : ["", [
               "#!/bin/bash\n",
               "yum install -y wget git maven\n",
               "mkdir -p /opt/github/khallware/\n",
               "cd /opt/github/khallware/\n",
               "git clone https://gitlab.com/harkwell/merit.git\n"
            ]]}}
         }
      },
   },
   "Outputs" : {
      "merit" : {
         "Description" : "EC2 IP Address...",
         "Value" : { "Fn::Join" : [ "", [{ "Ref" : "AWS::Region" }, "a" ]] }
      }
   }
}
